{"total": 743, "offset": 0, "next": 5, "data": [{"paperId": "ec3dcd8d1ab2ca9357a6be86f16b20042058ad8b", "externalIds": {"DBLP": "journals/corr/abs-2502-01225", "ArXiv": "2502.01225", "DOI": "10.48550/arXiv.2502.01225", "CorpusId": 276095104}, "url": "https://www.semanticscholar.org/paper/ec3dcd8d1ab2ca9357a6be86f16b20042058ad8b", "title": "The dark deep side of DeepSeek: Fine-tuning attacks against the safety alignment of CoT-enabled models", "year": 2025, "openAccessPdf": {"url": "", "status": null, "license": null, "disclaimer": "Notice: Paper or abstract available at https://arxiv.org/abs/2502.01225, which is subject to the license by the author or copyright owner provided with this content. Please go to the source to verify the license and copyright information for your use."}, "authors": [{"authorId": "2343657629", "name": "Zhiyuan Xu"}, {"authorId": "2343638160", "name": "Joseph Gardiner"}, {"authorId": "2304558821", "name": "Sana Belguith"}], "abstract": "Large language models are typically trained on vast amounts of data during the pre-training phase, which may include some potentially harmful information. Fine-tuning attacks can exploit this by prompting the model to reveal such behaviours, leading to the generation of harmful content. In this paper, we focus on investigating the performance of the Chain of Thought based reasoning model, DeepSeek, when subjected to fine-tuning attacks. Specifically, we explore how fine-tuning manipulates the model's output, exacerbating the harmfulness of its responses while examining the interaction between the Chain of Thought reasoning and adversarial inputs. Through this study, we aim to shed light on the vulnerability of Chain of Thought enabled models to fine-tuning attacks and the implications for their safety and ethical deployment."}, {"paperId": "e06217b5d1c0bad7e67eb70094bd4a327359f6ef", "externalIds": {"DBLP": "conf/nips/HuangHIT024", "ArXiv": "2405.18641", "DOI": "10.52202/079017-3320", "CorpusId": 270095345}, "url": "https://www.semanticscholar.org/paper/e06217b5d1c0bad7e67eb70094bd4a327359f6ef", "title": "Lisa: Lazy Safety Alignment for Large Language Models against Harmful Fine-tuning Attack", "year": 2024, "openAccessPdf": {"url": "", "status": null, "license": null, "disclaimer": "Notice: Paper or abstract available at https://arxiv.org/abs/2405.18641, which is subject to the license by the author or copyright owner provided with this content. Please go to the source to verify the license and copyright information for your use."}, "authors": [{"authorId": "2253860508", "name": "Tiansheng Huang"}, {"authorId": "2254156032", "name": "Sihao Hu"}, {"authorId": "2046866873", "name": "Fatih Ilhan"}, {"authorId": "2066601176", "name": "S. Tekin"}, {"authorId": "2254270304", "name": "Ling Liu"}], "abstract": "Recent studies show that Large Language Models (LLMs) with safety alignment can be jail-broken by fine-tuning on a dataset mixed with harmful data. First time in the literature, we show that the jail-broken effect can be mitigated by separating states in the finetuning stage to optimize the alignment and user datasets. Unfortunately, our subsequent study shows that this simple Bi-State Optimization (BSO) solution experiences convergence instability when steps invested in its alignment state is too small, leading to downgraded alignment performance. By statistical analysis, we show that the \\textit{excess drift} towards consensus could be a probable reason for the instability. To remedy this issue, we propose \\textbf{L}azy(\\textbf{i}) \\textbf{s}afety \\textbf{a}lignment (\\textbf{Lisa}), which introduces a proximal term to constraint the drift of each state. Theoretically, the benefit of the proximal term is supported by the convergence analysis, wherein we show that a sufficient large proximal factor is necessary to guarantee Lisa's convergence. Empirically, our results on four downstream finetuning tasks show that Lisa with a proximal term can significantly increase alignment performance while maintaining the LLM's accuracy on the user tasks. Code is available at \\url{https://github.com/git-disl/Lisa}."}, {"paperId": "f51e6dbff2551f7919e508435a944300add93f49", "externalIds": {"ArXiv": "2510.10085", "DBLP": "journals/corr/abs-2510-10085", "DOI": "10.48550/arXiv.2510.10085", "CorpusId": 282057846}, "url": "https://www.semanticscholar.org/paper/f51e6dbff2551f7919e508435a944300add93f49", "title": "Pharmacist: Safety Alignment Data Curation for Large Language Models against Harmful Fine-tuning", "year": 2025, "openAccessPdf": {"url": "", "status": null, "license": null, "disclaimer": "Notice: Paper or abstract available at https://arxiv.org/abs/2510.10085, which is subject to the license by the author or copyright owner provided with this content. Please go to the source to verify the license and copyright information for your use."}, "authors": [{"authorId": "2326012798", "name": "Guozhi Liu"}, {"authorId": "2325906919", "name": "Qi Mu"}, {"authorId": "2343559440", "name": "Tiansheng Huang"}, {"authorId": "2285389658", "name": "Xinhua Wang"}, {"authorId": "2325984735", "name": "Li Shen"}, {"authorId": "2278421293", "name": "Weiwei Lin"}, {"authorId": "2285096130", "name": "Zhang Li"}], "abstract": "Harmful fine-tuning issues present significant safety challenges for fine-tuning-as-a-service in large language models. Existing alignment-stage defenses, e.g., Vaccine, Repnoise, Booster, and T-Vaccine, mitigate harmful fine-tuning issues by enhancing the model's robustness during the alignment phase. While these methods have been proposed to mitigate the issue, they often overlook a critical upstream factor: the role of the original safety-alignment data. We observe that their defense performance and computational efficiency remain constrained by the quality and composition of the alignment dataset. To address this limitation, we propose Pharmacist, a safety alignment data curation solution that enhances defense against harmful fine-tuning by selecting a high-quality and safety-critical core subset from the original alignment data. The core idea of Pharmacist is to train an alignment data selector to rank alignment data. Specifically, up-ranking high-quality and safety-critical alignment data, down-ranking low-quality and non-safety-critical data. Empirical results indicate that models trained on datasets selected by Pharmacist outperform those trained on datasets selected by existing selection methods in both defense and inference performance. In addition, Pharmacist can be effectively integrated with mainstream alignment-stage defense methods. For example, when applied to RepNoise and T-Vaccine, using the dataset selected by Pharmacist instead of the full dataset leads to improvements in defense performance by 2.60\\% and 3.30\\%, respectively, and enhances inference performance by 3.50\\% and 1.10\\%. Notably, it reduces training time by 56.83\\% and 57.63\\%, respectively. Our code is available at https://github.com/Lslland/Pharmacist."}, {"paperId": "be4156b6c5b804af6a20e5f723e521df6981b6fc", "externalIds": {"DBLP": "journals/corr/abs-2408-09600", "ArXiv": "2408.09600", "DOI": "10.48550/arXiv.2408.09600", "CorpusId": 271902833}, "url": "https://www.semanticscholar.org/paper/be4156b6c5b804af6a20e5f723e521df6981b6fc", "title": "Antidote: Post-fine-tuning Safety Alignment for Large Language Models against Harmful Fine-tuning", "year": 2024, "openAccessPdf": {"url": "", "status": null, "license": null, "disclaimer": "Notice: Paper or abstract available at https://arxiv.org/abs/2408.09600, which is subject to the license by the author or copyright owner provided with this content. Please go to the source to verify the license and copyright information for your use."}, "authors": [{"authorId": "2253860508", "name": "Tiansheng Huang"}, {"authorId": "2058911648", "name": "Gautam Bhattacharya"}, {"authorId": "2336086099", "name": "Pratik Joshi"}, {"authorId": "2397762530", "name": "J. Kimball"}, {"authorId": "2254270304", "name": "Ling Liu"}], "abstract": "Safety aligned Large Language Models (LLMs) are vulnerable to harmful fine-tuning attacks -- a few harmful data mixed in the fine-tuning dataset can break the LLMs's safety alignment. While several defenses have been proposed, our evaluation shows that existing defenses fail \\textit{when some specific training hyper-parameters are chosen} -- a large learning rate or a large number of training epochs in the fine-tuning stage can easily invalidate the defense. To this end, we propose Antidote, a post-fine-tuning stage solution, which remains \\textbf{\\textit{agnostic to the training hyper-parameters in the fine-tuning stage}}. Antidote relies on the philosophy that by removing the harmful parameters, the harmful model can be recovered from the harmful behaviors, regardless of how those harmful parameters are formed in the fine-tuning stage. With this philosophy, we introduce a one-shot pruning stage after harmful fine-tuning to remove the harmful weights that are responsible for the generation of harmful content. Despite its embarrassing simplicity, empirical results show that Antidote can reduce harmful score while maintaining accuracy on downstream tasks. Code is available at https://github.com/git-disl/Antidote."}, {"paperId": "9108cc97f9498e0de5f54f78c3c739f1013212bd", "externalIds": {"DBLP": "journals/corr/abs-2507-03662", "ArXiv": "2507.03662", "DOI": "10.48550/arXiv.2507.03662", "CorpusId": 280068857}, "url": "https://www.semanticscholar.org/paper/9108cc97f9498e0de5f54f78c3c739f1013212bd", "title": "Re-Emergent Misalignment: How Narrow Fine-Tuning Erodes Safety Alignment in LLMs", "year": 2025, "openAccessPdf": {"url": "", "status": null, "license": null, "disclaimer": "Notice: Paper or abstract available at https://arxiv.org/abs/2507.03662, which is subject to the license by the author or copyright owner provided with this content. Please go to the source to verify the license and copyright information for your use."}, "authors": [{"authorId": "2336103507", "name": "Jeremiah Giordani"}], "abstract": "Recent work has shown that fine-tuning large language models (LLMs) on code with security vulnerabilities can result in misaligned and unsafe behaviors across broad domains. These results prompted concerns about the emergence of harmful behaviors from narrow domain fine-tuning. In this paper, we contextualize these findings by analyzing how such narrow adaptation impacts the internal mechanisms and behavioral manifestations of LLMs. Through a series of experiments covering output probability distributions, loss and gradient vector geometry, layer-wise activation dynamics, and activation space dimensions, we find that behaviors attributed to\"emergent misalignment\"may be better interpreted as an erosion of prior alignment. We show that fine tuning on insecure code induces internal changes that oppose alignment. Further, we identify a shared latent dimension in the model's activation space that governs alignment behavior. We show that this space is activated by insecure code and by misaligned responses more generally, revealing how narrow fine-tuning can degrade general safety behavior by interfering with shared internal mechanisms. Our findings offer a mechanistic interpretation for previously observed misalignment phenomena, and highlights the fragility of alignment in LLMs. The results underscore the need for more robust fine-tuning strategies that preserve intended behavior across domains."}]}
