{"total": 188, "offset": 0, "next": 5, "data": [{"paperId": "362d8ecc4bdbfca0ba8ff1ee097d4b3817d2d87c", "externalIds": {"ArXiv": "2605.08513", "CorpusId": 288258435}, "url": "https://www.semanticscholar.org/paper/362d8ecc4bdbfca0ba8ff1ee097d4b3817d2d87c", "title": "A Single Neuron Is Sufficient to Bypass Safety Alignment in Large Language Models", "year": 2026, "citationCount": 0, "openAccessPdf": {"url": "", "status": null, "license": null, "disclaimer": "Notice: Paper or abstract available at https://arxiv.org/abs/2605.08513, which is subject to the license by the author or copyright owner provided with this content. Please go to the source to verify the license and copyright information for your use."}, "authors": [{"authorId": "2329098249", "name": "Hamid Kazemi"}, {"authorId": "2188780004", "name": "Atoosa Malemir Chegini"}, {"authorId": "2003279896", "name": "M. Safi"}], "abstract": "Safety alignment in language models operates through two mechanistically distinct systems: refusal neurons that gate whether harmful knowledge is expressed, and concept neurons that encode the harmful knowledge itself. By targeting a single neuron in each system, we demonstrate both directions of failure -- bypassing safety on explicit harmful requests via suppression, and inducing harmful content from innocent prompts via amplification -- across seven models spanning two families and 1.7B to 70B parameters, without any training or prompt engineering. Our findings suggest that safety alignment is not robustly distributed across model weights but is mediated by individual neurons that are each causally sufficient to gate refusal behavior -- suppressing any one of the identified refusal neurons bypasses safety alignment across diverse harmful requests."}, {"paperId": "ad0927eb6f3ad1a3b73ae7a575ec417d2abc72a3", "externalIds": {"DBLP": "journals/corr/abs-2507-08020", "ArXiv": "2507.08020", "DOI": "10.48550/arXiv.2507.08020", "CorpusId": 280292114}, "url": "https://www.semanticscholar.org/paper/ad0927eb6f3ad1a3b73ae7a575ec417d2abc72a3", "title": "Circumventing Safety Alignment in Large Language Models Through Embedding Space Toxicity Attenuation", "year": 2025, "citationCount": 2, "openAccessPdf": {"url": "", "status": null, "license": null, "disclaimer": "Notice: Paper or abstract available at https://arxiv.org/abs/2507.08020, which is subject to the license by the author or copyright owner provided with this content. Please go to the source to verify the license and copyright information for your use."}, "authors": [{"authorId": "2271977255", "name": "Zhibo Zhang"}, {"authorId": "2268093091", "name": "Yuxi Li"}, {"authorId": "2265727621", "name": "Kailong Wang"}, {"authorId": "2374100385", "name": "Shuai Yuan"}, {"authorId": "2313867161", "name": "Ling Shi"}, {"authorId": "2269008788", "name": "Haoyu Wang"}], "abstract": "Large Language Models (LLMs) have achieved remarkable success across domains such as healthcare, education, and cybersecurity. However, this openness also introduces significant security risks, particularly through embedding space poisoning, which is a subtle attack vector where adversaries manipulate the internal semantic representations of input data to bypass safety alignment mechanisms. While previous research has investigated universal perturbation methods, the dynamics of LLM safety alignment at the embedding level remain insufficiently understood. Consequently, more targeted and accurate adversarial perturbation techniques, which pose significant threats, have not been adequately studied. In this work, we propose ETTA (Embedding Transformation Toxicity Attenuation), a novel framework that identifies and attenuates toxicity-sensitive dimensions in embedding space via linear transformations. ETTA bypasses model refusal behaviors while preserving linguistic coherence, without requiring model fine-tuning or access to training data. Evaluated on five representative open-source LLMs using the AdvBench benchmark, ETTA achieves a high average attack success rate of 88.61%, outperforming the best baseline by 11.34%, and generalizes to safety-enhanced models (e.g., 77.39% ASR on instruction-tuned defenses). These results highlight a critical vulnerability in current alignment strategies and underscore the need for embedding-aware defenses."}, {"paperId": "a83acadacea7531dd8d627888fb7eeb377d8c151", "externalIds": {"DBLP": "journals/corr/abs-2501-17433", "ArXiv": "2501.17433", "DOI": "10.48550/arXiv.2501.17433", "CorpusId": 275954444}, "url": "https://www.semanticscholar.org/paper/a83acadacea7531dd8d627888fb7eeb377d8c151", "title": "Virus: Harmful Fine-tuning Attack for Large Language Models Bypassing Guardrail Moderation", "year": 2025, "citationCount": 31, "openAccessPdf": {"url": "", "status": null, "license": null, "disclaimer": "Notice: Paper or abstract available at https://arxiv.org/abs/2501.17433, which is subject to the license by the author or copyright owner provided with this content. Please go to the source to verify the license and copyright information for your use."}, "authors": [{"authorId": "2253860508", "name": "Tiansheng Huang"}, {"authorId": "2254156032", "name": "Sihao Hu"}, {"authorId": "2046866873", "name": "Fatih Ilhan"}, {"authorId": "2066601176", "name": "S. Tekin"}, {"authorId": "2254270304", "name": "Ling Liu"}], "abstract": "Recent research shows that Large Language Models (LLMs) are vulnerable to harmful fine-tuning attacks -- models lose their safety alignment ability after fine-tuning on a few harmful samples. For risk mitigation, a guardrail is typically used to filter out harmful samples before fine-tuning. By designing a new red-teaming method, we in this paper show that purely relying on the moderation guardrail for data filtration is not reliable. Our proposed attack method, dubbed Virus, easily bypasses the guardrail moderation by slightly modifying the harmful data. Experimental results show that the harmful data optimized by Virus is not detectable by the guardrail with up to 100\\% leakage ratio, and can simultaneously achieve superior attack performance. Finally, the key message we want to convey through this paper is that: \\textbf{it is reckless to consider guardrail moderation as a clutch at straws towards harmful fine-tuning attack}, as it cannot solve the inherent safety issue of the pre-trained LLMs. Our code is available at https://github.com/git-disl/Virus"}, {"paperId": "24623e54207759c6dff7a2c390f10a18eab56c03", "externalIds": {"DBLP": "journals/corr/abs-2502-00669", "ArXiv": "2502.00669", "DOI": "10.48550/arXiv.2502.00669", "CorpusId": 276094949}, "url": "https://www.semanticscholar.org/paper/24623e54207759c6dff7a2c390f10a18eab56c03", "title": "Safety Alignment Depth in Large Language Models: A Markov Chain Perspective", "year": 2025, "citationCount": 1, "openAccessPdf": {"url": "", "status": null, "license": null, "disclaimer": "Notice: Paper or abstract available at https://arxiv.org/abs/2502.00669, which is subject to the license by the author or copyright owner provided with this content. Please go to the source to verify the license and copyright information for your use."}, "authors": [{"authorId": "1599691800", "name": "Ching-Chia Kao"}, {"authorId": "2289267169", "name": "Chia-Mu Yu"}, {"authorId": "2289787723", "name": "Chun-Shien Lu"}, {"authorId": "2311458135", "name": "Chu-Song Chen"}], "abstract": "Large Language Models (LLMs) are increasingly adopted in high-stakes scenarios, yet their safety mechanisms often remain fragile. Simple jailbreak prompts or even benign fine-tuning can bypass these protocols, underscoring the need to understand where and how they fail. Recent findings suggest that vulnerabilities emerge when alignment is confined to only the initial output tokens. Unfortunately, even with the introduction of deep safety alignment, determining the optimal safety depth remains an unresolved challenge. By leveraging the equivalence between autoregressive language models and Markov chains, this paper offers the first theoretical result on how to identify the ideal depth for safety alignment, and demonstrates how permutation-based data augmentation can tighten these bounds. Crucially, we reveal a fundamental interaction between alignment depth and ensemble width-indicating that broader ensembles can compensate for shallower alignments. These insights provide a theoretical foundation for designing more robust, scalable safety strategies that complement existing alignment approaches, opening new avenues for research into safer, more reliable LLMs."}, {"paperId": "9d2ea7145abe00e28ec4954cba437cdfe81b3089", "externalIds": {"DBLP": "conf/acl/ZouX0YWXWGL025", "ArXiv": "2502.09723", "DOI": "10.18653/v1/2025.findings-acl.298", "CorpusId": 276394988}, "url": "https://www.semanticscholar.org/paper/9d2ea7145abe00e28ec4954cba437cdfe81b3089", "title": "QueryAttack: Jailbreaking Aligned Large Language Models Using Structured Non-natural Query Language", "year": 2025, "citationCount": 15, "openAccessPdf": {"url": "", "status": null, "license": null, "disclaimer": "Notice: Paper or abstract available at https://arxiv.org/abs/2502.09723, which is subject to the license by the author or copyright owner provided with this content. Please go to the source to verify the license and copyright information for your use."}, "authors": [{"authorId": "2212942087", "name": "Qingsong Zou"}, {"authorId": "2144576502", "name": "Jingyu Xiao"}, {"authorId": "2279587512", "name": "Qing Li"}, {"authorId": "2346228787", "name": "Zhi Yan"}, {"authorId": "2345841706", "name": "Yuhang Wang"}, {"authorId": "2345814101", "name": "Li Xu"}, {"authorId": "2290126655", "name": "Wenxuan Wang"}, {"authorId": "2345701402", "name": "Kuofeng Gao"}, {"authorId": "50392026", "name": "Ruoyu Li"}, {"authorId": "2279762894", "name": "Yong Jiang"}], "abstract": "Recent advances in large language models (LLMs) have demonstrated remarkable potential in the field of natural language processing. Unfortunately, LLMs face significant security and ethical risks. Although techniques such as safety alignment are developed for defense, prior researches reveal the possibility of bypassing such defenses through well-designed jailbreak attacks. In this paper, we propose QueryAttack, a novel framework to examine the generalizability of safety alignment. By treating LLMs as knowledge databases, we translate malicious queries in natural language into structured non-natural query language to bypass the safety alignment mechanisms of LLMs. We conduct extensive experiments on mainstream LLMs, and the results show that QueryAttack not only can achieve high attack success rates (ASRs), but also can jailbreak various defense methods. Furthermore, we tailor a defense method against QueryAttack, which can reduce ASR by up to $64\\%$ on GPT-4-1106. Our code is available at https://github.com/horizonsinzqs/QueryAttack."}]}
