{"total": 1113, "offset": 0, "next": 5, "data": [{"paperId": "ec3dcd8d1ab2ca9357a6be86f16b20042058ad8b", "externalIds": {"DBLP": "journals/corr/abs-2502-01225", "ArXiv": "2502.01225", "DOI": "10.48550/arXiv.2502.01225", "CorpusId": 276095104}, "url": "https://www.semanticscholar.org/paper/ec3dcd8d1ab2ca9357a6be86f16b20042058ad8b", "title": "The dark deep side of DeepSeek: Fine-tuning attacks against the safety alignment of CoT-enabled models", "year": 2025, "openAccessPdf": {"url": "", "status": null, "license": null, "disclaimer": "Notice: Paper or abstract available at https://arxiv.org/abs/2502.01225, which is subject to the license by the author or copyright owner provided with this content. Please go to the source to verify the license and copyright information for your use."}, "authors": [{"authorId": "2343657629", "name": "Zhiyuan Xu"}, {"authorId": "2343638160", "name": "Joseph Gardiner"}, {"authorId": "2304558821", "name": "Sana Belguith"}], "abstract": "Large language models are typically trained on vast amounts of data during the pre-training phase, which may include some potentially harmful information. Fine-tuning attacks can exploit this by prompting the model to reveal such behaviours, leading to the generation of harmful content. In this paper, we focus on investigating the performance of the Chain of Thought based reasoning model, DeepSeek, when subjected to fine-tuning attacks. Specifically, we explore how fine-tuning manipulates the model's output, exacerbating the harmfulness of its responses while examining the interaction between the Chain of Thought reasoning and adversarial inputs. Through this study, we aim to shed light on the vulnerability of Chain of Thought enabled models to fine-tuning attacks and the implications for their safety and ethical deployment."}, {"paperId": "be4156b6c5b804af6a20e5f723e521df6981b6fc", "externalIds": {"DBLP": "journals/corr/abs-2408-09600", "ArXiv": "2408.09600", "DOI": "10.48550/arXiv.2408.09600", "CorpusId": 271902833}, "url": "https://www.semanticscholar.org/paper/be4156b6c5b804af6a20e5f723e521df6981b6fc", "title": "Antidote: Post-fine-tuning Safety Alignment for Large Language Models against Harmful Fine-tuning", "year": 2024, "openAccessPdf": {"url": "", "status": null, "license": null, "disclaimer": "Notice: Paper or abstract available at https://arxiv.org/abs/2408.09600, which is subject to the license by the author or copyright owner provided with this content. Please go to the source to verify the license and copyright information for your use."}, "authors": [{"authorId": "2253860508", "name": "Tiansheng Huang"}, {"authorId": "2058911648", "name": "Gautam Bhattacharya"}, {"authorId": "2336086099", "name": "Pratik Joshi"}, {"authorId": "2397762530", "name": "J. Kimball"}, {"authorId": "2254270304", "name": "Ling Liu"}], "abstract": "Safety aligned Large Language Models (LLMs) are vulnerable to harmful fine-tuning attacks -- a few harmful data mixed in the fine-tuning dataset can break the LLMs's safety alignment. While several defenses have been proposed, our evaluation shows that existing defenses fail \\textit{when some specific training hyper-parameters are chosen} -- a large learning rate or a large number of training epochs in the fine-tuning stage can easily invalidate the defense. To this end, we propose Antidote, a post-fine-tuning stage solution, which remains \\textbf{\\textit{agnostic to the training hyper-parameters in the fine-tuning stage}}. Antidote relies on the philosophy that by removing the harmful parameters, the harmful model can be recovered from the harmful behaviors, regardless of how those harmful parameters are formed in the fine-tuning stage. With this philosophy, we introduce a one-shot pruning stage after harmful fine-tuning to remove the harmful weights that are responsible for the generation of harmful content. Despite its embarrassing simplicity, empirical results show that Antidote can reduce harmful score while maintaining accuracy on downstream tasks. Code is available at https://github.com/git-disl/Antidote."}, {"paperId": "d3c405f8d554549d6d1278dafaf1446809effdae", "externalIds": {"ArXiv": "2603.10243", "CorpusId": 286457697}, "url": "https://www.semanticscholar.org/paper/d3c405f8d554549d6d1278dafaf1446809effdae", "title": "GR-SAP: Generative Replay for Safety Alignment Preservation during Fine-Tuning", "year": 2026, "openAccessPdf": {"url": "", "status": null, "license": null, "disclaimer": "Notice: Paper or abstract available at https://arxiv.org/abs/2603.10243, which is subject to the license by the author or copyright owner provided with this content. Please go to the source to verify the license and copyright information for your use."}, "authors": [{"authorId": "2358197388", "name": "Zhouxiang Fang"}, {"authorId": "2112249795", "name": "Jiawei Zhou"}, {"authorId": "2374325194", "name": "Hanjie Chen"}], "abstract": "Recent studies show that the safety alignment of large language models (LLMs) can be easily compromised even by seemingly non-adversarial fine-tuning. To preserve safety alignment during fine-tuning, a widely used strategy is to jointly optimize safety and task objectives by mixing in the original alignment data, which is typically inaccessible even for open-weight LLMs. Inspired by generative replay in continual learning, we propose Generative Replay for Safety Alignment Preservation (GR-SAP), a unified framework that synthesizes domain-specific alignment data from LLMs and integrate them during downstream adaption to preserve safety alignment. Theoretical and empirical analyses demonstrate this synthetic data serves as a reliable proxy for the original alignment data. Experiments across various models and downstream tasks show that GR-SAP substantially mitigates fine-tuning-induced safety degradation while maintaining comparable downstream performance. Our code is available at https://github.com/chili-lab/gr-sap."}, {"paperId": "57ca65df53e5f4dd8fba95e68c06e81f7ebf5551", "externalIds": {"DBLP": "conf/emnlp/WengLFHW25", "ArXiv": "2502.11455", "DOI": "10.48550/arXiv.2502.11455", "CorpusId": 276408157}, "url": "https://www.semanticscholar.org/paper/57ca65df53e5f4dd8fba95e68c06e81f7ebf5551", "title": "Adversary-Aware DPO: Enhancing Safety Alignment in Vision Language Models via Adversarial Training", "year": 2025, "openAccessPdf": {"url": "", "status": null, "license": null, "disclaimer": "Notice: Paper or abstract available at https://arxiv.org/abs/2502.11455, which is subject to the license by the author or copyright owner provided with this content. Please go to the source to verify the license and copyright information for your use."}, "authors": [{"authorId": "2316325363", "name": "Fenghua Weng"}, {"authorId": "2280063994", "name": "Jian Lou"}, {"authorId": "2117000798", "name": "Jun Feng"}, {"authorId": "2346102483", "name": "Minlie Huang"}, {"authorId": "2237739685", "name": "Wenjie Wang"}], "abstract": "Safety alignment is critical in pre-training large language models (LLMs) to generate responses aligned with human values and refuse harmful queries. Unlike LLM, the current safety alignment of VLMs is often achieved with post-hoc safety fine-tuning. However, these methods are less effective to white-box attacks. To address this, we propose $\\textit{Adversary-aware DPO (ADPO)}$, a novel training framework that explicitly considers adversarial. $\\textit{Adversary-aware DPO (ADPO)}$ integrates adversarial training into DPO to enhance the safety alignment of VLMs under worst-case adversarial perturbations. $\\textit{ADPO}$ introduces two key components: (1) an adversarial-trained reference model that generates human-preferred responses under worst-case perturbations, and (2) an adversarial-aware DPO loss that generates winner-loser pairs accounting for adversarial distortions. By combining these innovations, $\\textit{ADPO}$ ensures that VLMs remain robust and reliable even in the presence of sophisticated jailbreak attacks. Extensive experiments demonstrate that $\\textit{ADPO}$ outperforms baselines in the safety alignment and general utility of VLMs."}, {"paperId": "e06217b5d1c0bad7e67eb70094bd4a327359f6ef", "externalIds": {"DBLP": "conf/nips/HuangHIT024", "ArXiv": "2405.18641", "DOI": "10.52202/079017-3320", "CorpusId": 270095345}, "url": "https://www.semanticscholar.org/paper/e06217b5d1c0bad7e67eb70094bd4a327359f6ef", "title": "Lisa: Lazy Safety Alignment for Large Language Models against Harmful Fine-tuning Attack", "year": 2024, "openAccessPdf": {"url": "", "status": null, "license": null, "disclaimer": "Notice: Paper or abstract available at https://arxiv.org/abs/2405.18641, which is subject to the license by the author or copyright owner provided with this content. Please go to the source to verify the license and copyright information for your use."}, "authors": [{"authorId": "2253860508", "name": "Tiansheng Huang"}, {"authorId": "2254156032", "name": "Sihao Hu"}, {"authorId": "2046866873", "name": "Fatih Ilhan"}, {"authorId": "2066601176", "name": "S. Tekin"}, {"authorId": "2254270304", "name": "Ling Liu"}], "abstract": "Recent studies show that Large Language Models (LLMs) with safety alignment can be jail-broken by fine-tuning on a dataset mixed with harmful data. First time in the literature, we show that the jail-broken effect can be mitigated by separating states in the finetuning stage to optimize the alignment and user datasets. Unfortunately, our subsequent study shows that this simple Bi-State Optimization (BSO) solution experiences convergence instability when steps invested in its alignment state is too small, leading to downgraded alignment performance. By statistical analysis, we show that the \\textit{excess drift} towards consensus could be a probable reason for the instability. To remedy this issue, we propose \\textbf{L}azy(\\textbf{i}) \\textbf{s}afety \\textbf{a}lignment (\\textbf{Lisa}), which introduces a proximal term to constraint the drift of each state. Theoretically, the benefit of the proximal term is supported by the convergence analysis, wherein we show that a sufficient large proximal factor is necessary to guarantee Lisa's convergence. Empirically, our results on four downstream finetuning tasks show that Lisa with a proximal term can significantly increase alignment performance while maintaining the LLM's accuracy on the user tasks. Code is available at \\url{https://github.com/git-disl/Lisa}."}]}
